{
    "Framework": {
        "basePath": "vendor\/shopware\/core\/Framework\/",
        "views": [
            "Resources\/views"
        ],
        "technicalName": "framework",
        "administration": {
            "path": "Resources\/app\/administration\/src",
            "entryFilePath": null,
            "webpack": null
        },
        "storefront": {
            "path": "Resources\/app\/storefront\/src",
            "entryFilePath": null,
            "webpack": null,
            "styleFiles": []
        }
    },
    "System": {
        "basePath": "vendor\/shopware\/core\/System\/",
        "views": [
            "Resources\/views"
        ],
        "technicalName": "system",
        "administration": {
            "path": "Resources\/app\/administration\/src",
            "entryFilePath": null,
            "webpack": null
        },
        "storefront": {
            "path": "Resources\/app\/storefront\/src",
            "entryFilePath": null,
            "webpack": null,
            "styleFiles": []
        }
    },
    "Content": {
        "basePath": "vendor\/shopware\/core\/Content\/",
        "views": [
            "Resources\/views"
        ],
        "technicalName": "content",
        "administration": {
            "path": "Resources\/app\/administration\/src",
            "entryFilePath": null,
            "webpack": null
        },
        "storefront": {
            "path": "Resources\/app\/storefront\/src",
            "entryFilePath": null,
            "webpack": null,
            "styleFiles": []
        }
    },
    "Checkout": {
        "basePath": "vendor\/shopware\/core\/Checkout\/",
        "views": [
            "Resources\/views"
        ],
        "technicalName": "checkout",
        "administration": {
            "path": "Resources\/app\/administration\/src",
            "entryFilePath": null,
            "webpack": null
        },
        "storefront": {
            "path": "Resources\/app\/storefront\/src",
            "entryFilePath": null,
            "webpack": null,
            "styleFiles": []
        }
    },
    "Profiling": {
        "basePath": "vendor\/shopware\/core\/Profiling\/",
        "views": [
            "Resources\/views"
        ],
        "technicalName": "profiling",
        "administration": {
            "path": "Resources\/app\/administration\/src",
            "entryFilePath": null,
            "webpack": null
        },
        "storefront": {
            "path": "Resources\/app\/storefront\/src",
            "entryFilePath": null,
            "webpack": null,
            "styleFiles": []
        }
    },
    "Administration": {
        "basePath": "vendor\/shopware\/administration\/",
        "views": [
            "Resources\/views"
        ],
        "technicalName": "administration",
        "administration": {
            "path": "Resources\/app\/administration\/src",
            "entryFilePath": null,
            "webpack": null
        },
        "storefront": {
            "path": "Resources\/app\/storefront\/src",
            "entryFilePath": null,
            "webpack": null,
            "styleFiles": []
        }
    },
    "Storefront": {
        "basePath": "vendor\/shopware\/storefront\/",
        "views": [
            "Resources\/views"
        ],
        "technicalName": "storefront",
        "administration": {
            "path": "Resources\/app\/administration\/src",
            "entryFilePath": "Resources\/app\/administration\/src\/main.js",
            "webpack": null
        },
        "storefront": {
            "path": "Resources\/app\/storefront\/src",
            "entryFilePath": "Resources\/app\/storefront\/src\/main.js",
            "webpack": null,
            "styleFiles": [
                "\/var\/www\/html\/shopware\/vendor\/shopware\/storefront\/Resources\/app\/storefront\/src\/scss\/base.scss",
                "\/var\/www\/html\/shopware\/vendor\/shopware\/storefront\/Resources\/app\/storefront\/src\/scss\/skin\/shopware\/_base.scss",
                "@Plugins"
            ]
        }
    },
    "Elasticsearch": {
        "basePath": "vendor\/shopware\/elasticsearch\/",
        "views": [
            "Resources\/views"
        ],
        "technicalName": "elasticsearch",
        "administration": {
            "path": "Resources\/app\/administration\/src",
            "entryFilePath": null,
            "webpack": null
        },
        "storefront": {
            "path": "Resources\/app\/storefront\/src",
            "entryFilePath": null,
            "webpack": null,
            "styleFiles": []
        }
    },
    "MAKSTORE": {
        "basePath": "vendor\/digitalisman\/theme-mak-store\/src\/",
        "views": [
            "Resources\/views"
        ],
        "technicalName": "m-a-k-s-t-o-r-e",
        "administration": {
            "path": "Resources\/app\/administration\/src",
            "entryFilePath": null,
            "webpack": null
        },
        "storefront": {
            "path": "Resources\/app\/storefront\/src",
            "entryFilePath": "Resources\/app\/storefront\/src\/main.js",
            "webpack": null,
            "styleFiles": [
                "\/var\/www\/html\/shopware\/custom\/static-plugins\/MAKSTORE\/src\/Resources\/app\/storefront\/src\/scss\/overrides.scss",
                "@Storefront",
                "\/var\/www\/html\/shopware\/custom\/static-plugins\/MAKSTORE\/src\/Resources\/app\/storefront\/src\/scss\/base.scss"
            ]
        }
    }
}